{
  "@context": "/api/contexts/Account",
  "@id": "/api/accounts",
  "@type": "hydra:Collection",
  "hydra:member": [
    {
      "@id": "/api/accounts/1",
      "@type": "Account",
      "id": 1,
      "username": "jonsnow_1",
      "isActive": true,
      "roles": [
        "/api/roles/1"
      ],
      "password": "ec9f2141db0a0377e3389340e63b717d"
    },
    {
      "@id": "/api/accounts/2",
      "@type": "Account",
      "id": 2,
      "username": "jonsnow_2",
      "isActive": false,
      "roles": [
        "/api/roles/2"
      ],
      "password": "ec9f2141db0a0377e3389340e63b717d"
    },
    {
      "@id": "/api/accounts/3",
      "@type": "Account",
      "id": 3,
      "username": "jonsnow_3",
      "isActive": true,
      "roles": [
        "/api/roles/3"
      ],
      "password": "ec9f2141db0a0377e3389340e63b717d"
    },
    {
      "@id": "/api/accounts/4",
      "@type": "Account",
      "id": 4,
      "username": "jonsnow_4",
      "isActive": false,
      "roles": [
        "/api/roles/3"
      ],
      "password": "ec9f2141db0a0377e3389340e63b717d"
    },
    {
      "@id": "/api/accounts/5",
      "@type": "Account",
      "id": 5,
      "username": "jonsnow_5",
      "isActive": true,
      "roles": [],
      "password": "ec9f2141db0a0377e3389340e63b717d"
    },
    {
      "@id": "/api/accounts/6",
      "@type": "Account",
      "id": 6,
      "username": "jonsnow_6",
      "isActive": false,
      "roles": [],
      "password": "ec9f2141db0a0377e3389340e63b717d"
    },
    {
      "@id": "/api/accounts/7",
      "@type": "Account",
      "id": 7,
      "username": "jonsnow_7",
      "isActive": true,
      "roles": [],
      "password": "ec9f2141db0a0377e3389340e63b717d"
    },
    {
      "@id": "/api/accounts/8",
      "@type": "Account",
      "id": 8,
      "username": "jonsnow_8",
      "isActive": false,
      "roles": [],
      "password": "ec9f2141db0a0377e3389340e63b717d"
    },
    {
      "@id": "/api/accounts/9",
      "@type": "Account",
      "id": 9,
      "username": "jonsnow_9",
      "isActive": true,
      "roles": [],
      "password": "ec9f2141db0a0377e3389340e63b717d"
    },
    {
      "@id": "/api/accounts/10",
      "@type": "Account",
      "id": 10,
      "username": "jonsnow_10",
      "isActive": false,
      "roles": [],
      "password": "ec9f2141db0a0377e3389340e63b717d"
    }
  ],
  "hydra:totalItems": 20,
  "hydra:view": {
    "@id": "/api/accounts?page=1",
    "@type": "hydra:PartialCollectionView",
    "hydra:first": "/api/accounts?page=1",
    "hydra:last": "/api/accounts?page=2",
    "hydra:next": "/api/accounts?page=2"
  },
  "hydra:search": {
    "@type": "hydra:IriTemplate",
    "hydra:template": "/api/accounts{?isActive}",
    "hydra:variableRepresentation": "BasicRepresentation",
    "hydra:mapping": [
      {
        "@type": "IriTemplateMapping",
        "variable": "isActive",
        "property": "isActive",
        "required": false
      }
    ]
  }
}