/**
  curl -X GET "https://localhost:8000/api/accounts?isActive=true&itemsPerPage=5" -H "accept: application/ld+json"
*/

{
  "@context": "/api/contexts/Account",
  "@id": "/api/accounts",
  "@type": "hydra:Collection",
  "hydra:member": [
    {
      "@id": "/api/accounts/62",
      "@type": "Account",
      "id": 62,
      "username": "jonsnow_1",
      "isActive": true
    },
    {
      "@id": "/api/accounts/64",
      "@type": "Account",
      "id": 64,
      "username": "jonsnow_3",
      "isActive": true
    },
    {
      "@id": "/api/accounts/66",
      "@type": "Account",
      "id": 66,
      "username": "jonsnow_5",
      "isActive": true
    },
    {
      "@id": "/api/accounts/68",
      "@type": "Account",
      "id": 68,
      "username": "jonsnow_7",
      "isActive": true
    },
    {
      "@id": "/api/accounts/70",
      "@type": "Account",
      "id": 70,
      "username": "jonsnow_9",
      "isActive": true
    }
  ],
  "hydra:totalItems": 10,
  "hydra:view": {
    "@id": "/api/accounts?isActive=true&itemsPerPage=5&page=1",
    "@type": "hydra:PartialCollectionView",
    "hydra:first": "/api/accounts?isActive=true&itemsPerPage=5&page=1",
    "hydra:last": "/api/accounts?isActive=true&itemsPerPage=5&page=2",
    "hydra:next": "/api/accounts?isActive=true&itemsPerPage=5&page=2"
  },
  "hydra:search": {
    "@type": "hydra:IriTemplate",
    "hydra:template": "/api/accounts{?isActive}",
    "hydra:variableRepresentation": "BasicRepresentation",
    "hydra:mapping": [
      {
        "@type": "IriTemplateMapping",
        "variable": "isActive",
        "property": "isActive",
        "required": false
      }
    ]
  }
}
