{
  "@context": "/api/contexts/Account",
  "@id": "/api/accounts",
  "@type": "hydra:Collection",
  "hydra:member": [
    {
      "@id": "/api/accounts/102",
      "@type": "Account",
      "id": 102,
      "username": "jonsnow_1",
      "isActive": true,
      "roles": [
        "/api/roles/1"
      ]
    },
    {
      "@id": "/api/accounts/104",
      "@type": "Account",
      "id": 104,
      "username": "jonsnow_3",
      "isActive": true,
      "roles": [
        "/api/roles/3"
      ]
    },
    {
      "@id": "/api/accounts/106",
      "@type": "Account",
      "id": 106,
      "username": "jonsnow_5",
      "isActive": true,
      "roles": []
    },
    {
      "@id": "/api/accounts/108",
      "@type": "Account",
      "id": 108,
      "username": "jonsnow_7",
      "isActive": true,
      "roles": []
    },
    {
      "@id": "/api/accounts/110",
      "@type": "Account",
      "id": 110,
      "username": "jonsnow_9",
      "isActive": true,
      "roles": []
    }
  ],
  "hydra:totalItems": 10,
  "hydra:view": {
    "@id": "/api/accounts?isActive=true&itemsPerPage=5&page=1",
    "@type": "hydra:PartialCollectionView",
    "hydra:first": "/api/accounts?isActive=true&itemsPerPage=5&page=1",
    "hydra:last": "/api/accounts?isActive=true&itemsPerPage=5&page=2",
    "hydra:next": "/api/accounts?isActive=true&itemsPerPage=5&page=2"
  },
  "hydra:search": {
    "@type": "hydra:IriTemplate",
    "hydra:template": "/api/accounts{?isActive}",
    "hydra:variableRepresentation": "BasicRepresentation",
    "hydra:mapping": [
      {
        "@type": "IriTemplateMapping",
        "variable": "isActive",
        "property": "isActive",
        "required": false
      }
    ]
  }
}